﻿<?xml version="1.0" encoding="UTF-8"?>
<TestRun id="b9dafacb-a6fd-43e0-a883-57c2e4141494" name="Plasmodius@MULTIVAC 2014-02-18 02:05:06" runUser="Multivac\Plasmodius" xmlns="http://microsoft.com/schemas/VisualStudio/TeamTest/2010">
  <TestSettings name="Local" id="3cc5033b-0d74-4487-8445-ec72a7ddcfb7">
    <Description>Esta es la configuración de pruebas predeterminada para una ejecución de pruebas local.</Description>
    <Deployment enabled="false" runDeploymentRoot="Plasmodius_MULTIVAC 2014-02-18 02_05_06">
      <DeploymentItem filename="F:\Dropbox\SanValero\3ro TIE\Proyecto fin de carrera\C#\GAdUPIN\packages\EntityFramework.4.3.1\lib\net40\EntityFramework.dll" />
      <DeploymentItem filename="F:\Dropbox\SanValero\3ro TIE\Proyecto fin de carrera\C#\GAdUPIN\GAdUPIN.CORE\bin\Debug\GAdUPIN.CORE.dll" />
      <DeploymentItem filename="F:\Dropbox\SanValero\3ro TIE\Proyecto fin de carrera\C#\GAdUPIN\GAdUPIN.Application\bin\Debug\GAdUPIN.Application.dll" />
    </Deployment>
    <Execution>
      <TestTypeSpecific />
      <AgentRule name="Execution Agents">
      </AgentRule>
    </Execution>
  </TestSettings>
  <Times creation="2014-02-18T02:05:06.7685590+01:00" queuing="2014-02-18T02:05:06.8885658+01:00" start="2014-02-18T02:05:06.8925661+01:00" finish="2014-02-18T02:05:07.1345799+01:00" />
  <ResultSummary outcome="Failed">
    <Counters total="3" executed="3" error="0" failed="3" timeout="0" aborted="0" inconclusive="0" passedButRunAborted="0" notRunnable="0" notExecuted="0" disconnected="0" warning="0" passed="0" completed="0" inProgress="0" pending="0" />
  </ResultSummary>
  <TestDefinitions>
    <UnitTest name="GetAllTest" storage="f:\dropbox\sanvalero\3ro tie\proyecto fin de carrera\c#\gadupin\gadupin.application.test\bin\debug\gadupin.application.test.dll" id="b174fa92-74d2-8c00-ec2b-81a56e09cc07">
      <Execution id="38d7f3ff-e6ae-46f3-9060-ef827be75b76" />
      <TestMethod codeBase="F:/Dropbox/SanValero/3ro TIE/Proyecto fin de carrera/C#/GAdUPIN/GAdUPIN.Application.Test/bin/Debug/GAdUPIN.Application.Test.DLL" adapterTypeName="Microsoft.VisualStudio.TestTools.TestTypes.Unit.UnitTestAdapter, Microsoft.VisualStudio.QualityTools.Tips.UnitTest.Adapter, Version=10.0.0.0, Culture=neutral, PublicKeyToken=b03f5f7f11d50a3a" className="GAdUPIN.Application.Test.ComunidadAutonomaServiceTests, GAdUPIN.Application.Test, Version=1.0.0.0, Culture=neutral, PublicKeyToken=null" name="GetAllTest" />
    </UnitTest>
    <UnitTest name="AddTest" storage="f:\dropbox\sanvalero\3ro tie\proyecto fin de carrera\c#\gadupin\gadupin.application.test\bin\debug\gadupin.application.test.dll" id="465b4ba0-6e62-44c0-d130-105a5abd51ef">
      <Execution id="038a66f1-a188-4518-8f79-fa84df25c46d" />
      <TestMethod codeBase="F:/Dropbox/SanValero/3ro TIE/Proyecto fin de carrera/C#/GAdUPIN/GAdUPIN.Application.Test/bin/Debug/GAdUPIN.Application.Test.DLL" adapterTypeName="Microsoft.VisualStudio.TestTools.TestTypes.Unit.UnitTestAdapter, Microsoft.VisualStudio.QualityTools.Tips.UnitTest.Adapter, Version=10.0.0.0, Culture=neutral, PublicKeyToken=b03f5f7f11d50a3a" className="GAdUPIN.Application.Test.ProvinciaServiceTests, GAdUPIN.Application.Test, Version=1.0.0.0, Culture=neutral, PublicKeyToken=null" name="AddTest" />
    </UnitTest>
    <UnitTest name="AddTest" storage="f:\dropbox\sanvalero\3ro tie\proyecto fin de carrera\c#\gadupin\gadupin.application.test\bin\debug\gadupin.application.test.dll" id="5d1b96d3-7c9b-7ee8-c84c-59b1e68de0c8">
      <Execution id="0597fe00-28f7-4097-81b2-cbb4aa0cad01" />
      <TestMethod codeBase="F:/Dropbox/SanValero/3ro TIE/Proyecto fin de carrera/C#/GAdUPIN/GAdUPIN.Application.Test/bin/Debug/GAdUPIN.Application.Test.DLL" adapterTypeName="Microsoft.VisualStudio.TestTools.TestTypes.Unit.UnitTestAdapter, Microsoft.VisualStudio.QualityTools.Tips.UnitTest.Adapter, Version=10.0.0.0, Culture=neutral, PublicKeyToken=b03f5f7f11d50a3a" className="GAdUPIN.Application.Test.ComunidadAutonomaServiceTests, GAdUPIN.Application.Test, Version=1.0.0.0, Culture=neutral, PublicKeyToken=null" name="AddTest" />
    </UnitTest>
  </TestDefinitions>
  <TestLists>
    <TestList name="Results Not in a List" id="8c84fa94-04c1-424b-9868-57a2d4851a1d" />
    <TestList name="All Loaded Results" id="19431567-8539-422a-85d7-44ee4e166bda" />
  </TestLists>
  <TestEntries>
    <TestEntry testId="465b4ba0-6e62-44c0-d130-105a5abd51ef" executionId="038a66f1-a188-4518-8f79-fa84df25c46d" testListId="8c84fa94-04c1-424b-9868-57a2d4851a1d" />
    <TestEntry testId="5d1b96d3-7c9b-7ee8-c84c-59b1e68de0c8" executionId="0597fe00-28f7-4097-81b2-cbb4aa0cad01" testListId="8c84fa94-04c1-424b-9868-57a2d4851a1d" />
    <TestEntry testId="b174fa92-74d2-8c00-ec2b-81a56e09cc07" executionId="38d7f3ff-e6ae-46f3-9060-ef827be75b76" testListId="8c84fa94-04c1-424b-9868-57a2d4851a1d" />
  </TestEntries>
  <Results>
    <UnitTestResult executionId="038a66f1-a188-4518-8f79-fa84df25c46d" testId="465b4ba0-6e62-44c0-d130-105a5abd51ef" testName="AddTest" computerName="MULTIVAC" duration="00:00:00.0890034" startTime="2014-02-18T02:05:06.8945662+01:00" endTime="2014-02-18T02:05:07.1015780+01:00" testType="13cdc9d9-ddb5-4fa4-a97d-d965ccfc6d4b" outcome="Failed" testListId="8c84fa94-04c1-424b-9868-57a2d4851a1d" relativeResultsDirectory="038a66f1-a188-4518-8f79-fa84df25c46d">
      <Output>
        <ErrorInfo>
          <Message>Test method GAdUPIN.Application.Test.ProvinciaServiceTests.AddTest threw exception: 
System.NotImplementedException: The method or operation is not implemented.</Message>
          <StackTrace>    at GAdUPIN.Application.Test.Fake.DBContextFake.get_Provincias() in F:\Dropbox\SanValero\3ro TIE\Proyecto fin de carrera\C#\GAdUPIN\GAdUPIN.Application.Test\Fake\DBContextFake.cs:line 44
   at GAdUPIN.Application.ProvinciaService.Add(Provincia provincia, Boolean autosave) in F:\Dropbox\SanValero\3ro TIE\Proyecto fin de carrera\C#\GAdUPIN\GAdUPIN.Application\ProvinciaService.cs:line 30
   at GAdUPIN.Application.Test.ProvinciaServiceTests.AddTest() in F:\Dropbox\SanValero\3ro TIE\Proyecto fin de carrera\C#\GAdUPIN\GAdUPIN.Application.Test\ProvinciaServiceTests.cs:line 24
</StackTrace>
        </ErrorInfo>
      </Output>
    </UnitTestResult>
    <UnitTestResult executionId="0597fe00-28f7-4097-81b2-cbb4aa0cad01" testId="5d1b96d3-7c9b-7ee8-c84c-59b1e68de0c8" testName="AddTest" computerName="MULTIVAC" duration="00:00:00.0025548" startTime="2014-02-18T02:05:07.1065783+01:00" endTime="2014-02-18T02:05:07.1115786+01:00" testType="13cdc9d9-ddb5-4fa4-a97d-d965ccfc6d4b" outcome="Failed" testListId="8c84fa94-04c1-424b-9868-57a2d4851a1d" relativeResultsDirectory="0597fe00-28f7-4097-81b2-cbb4aa0cad01">
      <Output>
        <ErrorInfo>
          <Message>Test method GAdUPIN.Application.Test.ComunidadAutonomaServiceTests.AddTest threw exception: 
System.NullReferenceException: Object reference not set to an instance of an object.</Message>
          <StackTrace>    at GAdUPIN.Application.ComunidadAutonomaService.Add(ComunidadAutonoma comunidadAutonoma, Boolean autosave) in F:\Dropbox\SanValero\3ro TIE\Proyecto fin de carrera\C#\GAdUPIN\GAdUPIN.Application\ComunidadAutonomaService.cs:line 28
   at GAdUPIN.Application.Test.ComunidadAutonomaServiceTests.AddTest() in F:\Dropbox\SanValero\3ro TIE\Proyecto fin de carrera\C#\GAdUPIN\GAdUPIN.Application.Test\ComunidadAutonomaServiceTests.cs:line 41
</StackTrace>
        </ErrorInfo>
      </Output>
    </UnitTestResult>
    <UnitTestResult executionId="38d7f3ff-e6ae-46f3-9060-ef827be75b76" testId="b174fa92-74d2-8c00-ec2b-81a56e09cc07" testName="GetAllTest" computerName="MULTIVAC" duration="00:00:00.0016812" startTime="2014-02-18T02:05:07.1125786+01:00" endTime="2014-02-18T02:05:07.1165789+01:00" testType="13cdc9d9-ddb5-4fa4-a97d-d965ccfc6d4b" outcome="Failed" testListId="8c84fa94-04c1-424b-9868-57a2d4851a1d" relativeResultsDirectory="38d7f3ff-e6ae-46f3-9060-ef827be75b76">
      <Output>
        <ErrorInfo>
          <Message>Test method GAdUPIN.Application.Test.ComunidadAutonomaServiceTests.GetAllTest threw exception: 
System.ArgumentNullException: Value cannot be null.
Parameter name: source</Message>
          <StackTrace>    at System.Linq.Queryable.Count[TSource](IQueryable`1 source)
   at GAdUPIN.Application.Test.ComunidadAutonomaServiceTests.GetAllTest() in F:\Dropbox\SanValero\3ro TIE\Proyecto fin de carrera\C#\GAdUPIN\GAdUPIN.Application.Test\ComunidadAutonomaServiceTests.cs:line 30
</StackTrace>
        </ErrorInfo>
      </Output>
    </UnitTestResult>
  </Results>
</TestRun>